module k8s.io/dashboard/web

go 1.19

require (
	github.com/golang/glog v1.1.0
	github.com/spf13/pflag v1.0.5
	golang.org/x/text v0.8.0
	k8s.io/dashboard/certificates v0.0.0-00010101000000-000000000000
)

require (
	github.com/go-logr/logr v1.2.3 // indirect
	github.com/gogo/protobuf v1.3.2 // indirect
	github.com/google/gofuzz v1.2.0 // indirect
	github.com/json-iterator/go v1.1.12 // indirect
	github.com/modern-go/concurrent v0.0.0-20180306012644-bacd9c7ef1dd // indirect
	github.com/modern-go/reflect2 v1.0.2 // indirect
	golang.org/x/net v0.7.0 // indirect
	gopkg.in/inf.v0 v0.9.1 // indirect
	gopkg.in/yaml.v2 v2.4.0 // indirect
	k8s.io/api v0.26.1 // indirect
	k8s.io/apimachinery v0.26.1 // indirect
	k8s.io/klog/v2 v2.80.1 // indirect
	k8s.io/utils v0.0.0-20221108210102-8e77b1f39fe2 // indirect
	sigs.k8s.io/json v0.0.0-20221116044647-bc3834ca7abd // indirect
	sigs.k8s.io/structured-merge-diff/v4 v4.2.3 // indirect
)

replace k8s.io/dashboard/certificates => ./../common/certificates
